{
    "Version": "2012-10-17",
    "Id": "S3PolicyId1",
    "Statement": [
      {
        "Sid": "IPAllow",
        "Effect": "Allow",
        "Principal": "*",
        "Action": "s3:*",
        "Resource": "arn:aws:s3:::codewithjoel/*",
        "Condition": {
          "IpAddress": {
            "aws:SourceIp": [
              "183.83.173.227/32"
            ]
          }
        }
      }
    ]
  }



  {
    "Version": "2012-10-17",
    "Id": "S3PolicyId1",
    "Statement": [
        {
            "Sid": "IPAllow",
            "Effect": "Allow",
            "Principal": "*",
            "Action": "s3:*",
            "Resource": "arn:aws:s3:::codewithjoel/*",
            "Condition": {
                "IpAddress": {
                    "aws:SourceIp": [
                        "183.83.173.227/32",
                        "165.225.50.88/32",
                        "146.196.45.60/32"
                    ]
                }
            }
        }
    ]
}
